{
 "actions": [],
 "autoname": "field:gateway_name",
 "creation": "2018-02-05 13:46:12.101852",
 "doctype": "DocType",
 "editable_grid": 1,
 "engine": "InnoDB",
 "field_order": [
  "gateway_name",
  "section_break_2",
  "merchant_id",
  "public_key",
  "private_key",
  "use_sandbox",
  "header_img"
 ],
 "fields": [
  {
   "fieldname": "gateway_name",
   "fieldtype": "Data",
   "label": "Payment Gateway Name",
   "reqd": 1,
   "unique": 1
  },
  {
   "fieldname": "section_break_2",
   "fieldtype": "Section Break"
  },
  {
   "fieldname": "merchant_id",
   "fieldtype": "Data",
   "label": "Merchant ID",
   "reqd": 1
  },
  {
   "fieldname": "public_key",
   "fieldtype": "Data",
   "in_list_view": 1,
   "label": "Public Key",
   "reqd": 1
  },
  {
   "fieldname": "private_key",
   "fieldtype": "Password",
   "in_list_view": 1,
   "label": "Private Key",
   "reqd": 1
  },
  {
   "default": "0",
   "fieldname": "use_sandbox",
   "fieldtype": "Check",
   "label": "Use Sandbox"
  },
  {
   "fieldname": "header_img",
   "fieldtype": "Attach Image",
   "label": "Header Image"
  }
 ],
 "links": [],
 "modified": "2022-08-03 15:48:28.933092",
 "modified_by": "Administrator",
 "module": "Payment Gateways",
 "name": "Braintree Settings",
 "owner": "Administrator",
 "permissions": [
  {
   "create": 1,
   "delete": 1,
   "email": 1,
   "print": 1,
   "read": 1,
   "role": "System Manager",
   "share": 1,
   "write": 1
  }
 ],
 "quick_entry": 1,
 "sort_field": "modified",
 "sort_order": "DESC",
 "states": []
}
