{
 "actions": [],
 "allow_rename": 1,
 "autoname": "field:gateway_name",
 "beta": 1,
 "creation": "2024-03-16 07:50:32.890917",
 "doctype": "DocType",
 "engine": "InnoDB",
 "field_order": [
  "gateway_name",
  "public_key",
  "private_key",
  "column_break_hypy",
  "webhook_secret_key",
  "section_break_zxbl",
  "card",
  "sepa"
 ],
 "fields": [
  {
   "fieldname": "gateway_name",
   "fieldtype": "Data",
   "in_list_view": 1,
   "label": "Payment Gateway Name",
   "reqd": 1,
   "unique": 1
  },
  {
   "fieldname": "public_key",
   "fieldtype": "Data",
   "label": "Public Key"
  },
  {
   "fieldname": "private_key",
   "fieldtype": "Password",
   "label": "Private Key"
  },
  {
   "fieldname": "webhook_secret_key",
   "fieldtype": "Password",
   "label": "Webhook Secret Key"
  },
  {
   "fieldname": "column_break_hypy",
   "fieldtype": "Column Break"
  },
  {
   "fieldname": "section_break_zxbl",
   "fieldtype": "Section Break",
   "label": "Payment Methods"
  },
  {
   "default": "1",
   "fieldname": "card",
   "fieldtype": "Check",
   "label": "Debit/Credit Card"
  },
  {
   "default": "1",
   "fieldname": "sepa",
   "fieldtype": "Check",
   "label": "Sepa Direct Debit"
  }
 ],
 "index_web_pages_for_search": 1,
 "links": [
  {
   "group": "Payment Gateways",
   "link_doctype": "Payment Gateway",
   "link_fieldname": "gateway_controller"
  }
 ],
 "modified": "2024-06-24 11:09:44.553612",
 "modified_by": "Administrator",
 "module": "Payment Gateways",
 "name": "Stancer Settings",
 "naming_rule": "By fieldname",
 "owner": "Administrator",
 "permissions": [
  {
   "create": 1,
   "delete": 1,
   "email": 1,
   "export": 1,
   "print": 1,
   "read": 1,
   "report": 1,
   "role": "System Manager",
   "select": 1,
   "share": 1,
   "write": 1
  },
  {
   "create": 1,
   "delete": 1,
   "email": 1,
   "export": 1,
   "print": 1,
   "read": 1,
   "report": 1,
   "role": "Accounts Manager",
   "select": 1,
   "share": 1,
   "write": 1
  }
 ],
 "sort_field": "modified",
 "sort_order": "DESC",
 "states": []
}
